<svg xmlns="http://www.w3.org/2000/svg" width="9.88" height="16" viewBox="0 0 9.88 16">
  <path id="ic_chevron_left_24px" d="M17.88,7.88,16,6,8,14l8,8,1.88-1.88L11.773,14Z" transform="translate(-8 -6)" fill="#fff"/>
</svg>
